-------------------------------------------------------------------------------
Test set: br.sp.cursoselenium.tests.ResumoTest
-------------------------------------------------------------------------------
Tests run: 3, Failures: 0, Errors: 0, Skipped: 0, Time elapsed: 60.167 sec - in br.sp.cursoselenium.tests.ResumoTest
